Region ID	World X	World Y	Has Music	
7499	1856	4800	1	
7501	1856	4928	1	
7754	1920	4736	1	
7755	1920	4800	1	
7757	1920	4928	1	
8006	1984	4480	1	
8008	1984	4608	1	
8009	1984	4672	1	
8010	1984	4736	1	
8011	1984	4800	1	
8241	2048	3136	1	
8242	2048	3200	1	
8262	2048	4480	1	
8263	2048	4544	1	
8264	2048	4608	1	
8265	2048	4672	1	
8266	2048	4736	0	
8269	2048	4928	0	
8496	2112	3072	1	
8497	2112	3136	1	
8498	2112	3200	1	
8499	2112	3264	1	
8518	2112	4480	0	
8519	2112	4544	1	
8520	2112	4608	0	
8521	2112	4672	1	
8522	2112	4736	0	
8523	2112	4800	1	
8524	2112	4864	0	
8752	2176	3072	1	
8753	2176	3136	1	
8754	2176	3200	1	
8755	2176	3264	1	
8774	2176	4480	0	
8775	2176	4544	0	
8776	2176	4608	0	
8777	2176	4672	0	
8778	2176	4736	0	
8779	2176	4800	0	
8781	2176	4928	1	
9008	2240	3072	1	
9009	2240	3136	1	
9010	2240	3200	1	
9011	2240	3264	1	
9012	2240	3328	1	
9033	2240	4672	1	
9034	2240	4736	1	
9035	2240	4800	1	
9263	2304	3008	1	
9264	2304	3072	1	
9265	2304	3136	1	
9266	2304	3200	1	
9267	2304	3264	1	
9268	2304	3328	1	
9269	2304	3392	1	
9270	2304	3456	1	
9287	2304	4544	1	
9288	2304	4608	0	
9289	2304	4672	0	
9290	2304	4736	0	
9293	2304	4928	1	
9362	2304	9344	0	
9363	2304	9408	0	
9364	2304	9472	0	
9365	2304	9536	0	
9366	2304	9600	1	
9368	2304	9728	0	
9369	2304	9792	1	
9370	2304	9856	1	
9519	2368	3008	1	
9520	2368	3072	1	
9521	2368	3136	1	
9522	2368	3200	1	
9523	2368	3264	1	
9524	2368	3328	1	
9525	2368	3392	1	
9526	2368	3456	1	
9527	2368	3520	1	
9540	2368	4352	1	
9541	2368	4416	1	
9545	2368	4672	1	
9546	2368	4736	0	
9547	2368	4800	1	
9549	2368	4928	1	
9552	2368	5120	1	
9618	2368	9344	0	
9619	2368	9408	1	
9620	2368	9472	1	
9621	2368	9536	1	
9622	2368	9600	1	
9623	2368	9664	1	
9624	2368	9728	1	
9625	2368	9792	1	
9626	2368	9856	1	
9774	2432	2944	1	
9775	2432	3008	1	
9776	2432	3072	1	
9777	2432	3136	1	
9778	2432	3200	1	
9779	2432	3264	1	
9780	2432	3328	1	
9781	2432	3392	1	
9782	2432	3456	1	
9783	2432	3520	1	
9784	2432	3584	1	
9785	2432	3648	1	
9786	2432	3712	1	
9787	2432	3776	1	
9788	2432	3840	1	
9789	2432	3904	1	
9797	2432	4416	1	
9799	2432	4544	1	
9801	2432	4672	1	
9802	2432	4736	1	
9803	2432	4800	1	
9805	2432	4928	1	
9808	2432	5120	1	
9874	2432	9344	1	
9875	2432	9408	1	
9876	2432	9472	1	
9877	2432	9536	1	
9878	2432	9600	1	
9879	2432	9664	1	
9880	2432	9728	1	
9881	2432	9792	1	
9882	2432	9856	1	
9883	2432	9920	0	
9886	2432	10112	1	
10030	2496	2944	1	
10031	2496	3008	1	
10032	2496	3072	1	
10033	2496	3136	1	
10034	2496	3200	1	
10035	2496	3264	1	
10036	2496	3328	1	
10037	2496	3392	1	
10038	2496	3456	1	
10039	2496	3520	1	
10040	2496	3584	1	
10041	2496	3648	0	
10042	2496	3712	1	
10043	2496	3776	0	
10044	2496	3840	1	
10045	2496	3904	0	
10055	2496	4544	1	
10056	2496	4608	1	
10057	2496	4672	1	
10058	2496	4736	1	
10059	2496	4800	1	
10061	2496	4928	1	
10131	2496	9408	1	
10132	2496	9472	1	
10133	2496	9536	1	
10134	2496	9600	1	
10135	2496	9664	1	
10136	2496	9728	1	
10137	2496	9792	1	
10138	2496	9856	1	
10139	2496	9920	1	
10140	2496	9984	1	
10142	2496	10112	1	
10286	2560	2944	1	
10287	2560	3008	1	
10288	2560	3072	1	
10289	2560	3136	1	
10290	2560	3200	1	
10291	2560	3264	1	
10292	2560	3328	1	
10293	2560	3392	1	
10294	2560	3456	1	
10295	2560	3520	1	
10296	2560	3584	1	
10297	2560	3648	1	
10298	2560	3712	1	
10299	2560	3776	1	
10300	2560	3840	1	
10301	2560	3904	1	
10309	2560	4416	1	
10310	2560	4480	1	
10311	2560	4544	1	
10312	2560	4608	0	
10313	2560	4672	1	
10314	2560	4736	1	
10315	2560	4800	1	
10317	2560	4928	1	
10387	2560	9408	1	
10388	2560	9472	1	
10389	2560	9536	1	
10390	2560	9600	1	
10391	2560	9664	1	
10392	2560	9728	1	
10393	2560	9792	1	
10394	2560	9856	1	
10542	2624	2944	1	
10543	2624	3008	1	
10544	2624	3072	1	
10545	2624	3136	1	
10546	2624	3200	1	
10547	2624	3264	1	
10548	2624	3328	1	
10549	2624	3392	1	
10550	2624	3456	1	
10551	2624	3520	1	
10552	2624	3584	1	
10553	2624	3648	1	
10554	2624	3712	1	
10555	2624	3776	1	
10556	2624	3840	1	
10557	2624	3904	1	
10566	2624	4480	1	
10567	2624	4544	1	
10568	2624	4608	1	
10569	2624	4672	1	
10570	2624	4736	1	
10571	2624	4800	1	
10575	2624	5056	1	
10642	2624	9344	1	
10644	2624	9472	1	
10645	2624	9536	1	
10647	2624	9664	1	
10648	2624	9728	1	
10649	2624	9792	1	
10650	2624	9856	1	
10652	2624	9984	1	
10653	2624	10048	1	
10794	2688	2688	1	
10795	2688	2752	1	
10796	2688	2816	1	
10797	2688	2880	1	
10798	2688	2944	1	
10799	2688	3008	1	
10800	2688	3072	1	
10801	2688	3136	1	
10802	2688	3200	1	
10803	2688	3264	1	
10804	2688	3328	1	
10805	2688	3392	1	
10806	2688	3456	1	
10807	2688	3520	1	
10808	2688	3584	1	
10809	2688	3648	1	
10810	2688	3712	1	
10811	2688	3776	1	
10812	2688	3840	1	
10821	2688	4416	1	
10822	2688	4480	1	
10823	2688	4544	1	
10824	2688	4608	0	
10825	2688	4672	1	
10826	2688	4736	0	
10827	2688	4800	1	
10828	2688	4864	1	
10831	2688	5056	1	
10894	2688	9088	1	
10895	2688	9152	1	
10896	2688	9216	0	
10897	2688	9280	0	
10898	2688	9344	0	
10899	2688	9408	1	
10900	2688	9472	1	
10901	2688	9536	1	
10902	2688	9600	0	
10903	2688	9664	1	
10904	2688	9728	1	
10905	2688	9792	1	
10906	2688	9856	1	
10908	2688	9984	1	
11050	2752	2688	1	
11051	2752	2752	1	
11052	2752	2816	0	
11053	2752	2880	1	
11054	2752	2944	1	
11055	2752	3008	1	
11056	2752	3072	1	
11057	2752	3136	1	
11058	2752	3200	1	
11059	2752	3264	1	
11060	2752	3328	1	
11061	2752	3392	1	
11062	2752	3456	1	
11063	2752	3520	1	
11064	2752	3584	1	
11065	2752	3648	1	
11066	2752	3712	1	
11067	2752	3776	1	
11068	2752	3840	1	
11077	2752	4416	1	
11078	2752	4480	1	
11079	2752	4544	1	
11080	2752	4608	1	Unknown
11081	2752	4672	1	
11082	2752	4736	1	Unknown
11083	2752	4800	1	
11085	2752	4928	0	desert treasure pyramid lvl 3
11150	2752	9088	1	
11151	2752	9152	1	
11152	2752	9216	0	
11153	2752	9280	1	
11154	2752	9344	1	
11156	2752	9472	0	
11157	2752	9536	1	
11158	2752	9600	0	
11161	2752	9792	0	hiding crates, keep le faye
11162	2752	9856	0	
11164	2752	9984	1	
11165	2752	10048	1	
11166	2752	10112	1	
11167	2752	10176	1	trollweiss dungeon
11306	2816	2688	0	
11307	2816	2752	0	
11308	2816	2816	0	
11309	2816	2880	1	
11310	2816	2944	1	
11311	2816	3008	1	
11312	2816	3072	1	
11313	2816	3136	1	
11314	2816	3200	1	
11315	2816	3264	1	
11316	2816	3328	1	
11317	2816	3392	1	
11318	2816	3456	1	
11319	2816	3520	1	
11320	2816	3584	1	
11321	2816	3648	1	
11322	2816	3712	1	
11323	2816	3776	1	
11339	2816	4800	1	
11341	2816	4928	1	desert treasure pyramid lvl 2
11408	2816	9216	0	
11409	2816	9280	0	
11410	2816	9344	0	
11412	2816	9472	1	
11413	2816	9536	1	
11414	2816	9600	1	
11415	2816	9664	0	
11416	2816	9728	1	
11417	2816	9792	1	
11418	2816	9856	1	
11419	2816	9920	1	
11421	2816	10048	1	
11422	2816	10112	1	
11423	2816	10176	1	
11562	2880	2688	1	
11563	2880	2752	0	
11564	2880	2816	0	
11565	2880	2880	1	
11566	2880	2944	1	
11567	2880	3008	1	
11568	2880	3072	1	
11569	2880	3136	1	
11570	2880	3200	1	
11571	2880	3264	1	
11572	2880	3328	1	
11573	2880	3392	1	
11574	2880	3456	1	
11575	2880	3520	1	
11576	2880	3584	1	
11577	2880	3648	1	
11578	2880	3712	1	
11579	2880	3776	0	
11582	2880	3968	0	
11591	2880	4544	1	
11593	2880	4672	0	quest area
11595	2880	4800	1	
11597	2880	4928	0	
11665	2880	9280	1	
11666	2880	9344	1	
11668	2880	9472	1	
11670	2880	9600	1	
11671	2880	9664	1	
11672	2880	9728	1	
11673	2880	9792	1	
11674	2880	9856	1	
11675	2880	9920	1	
11676	2880	9984	1	
11677	2880	10048	1	
11678	2880	10112	1	
11679	2880	10176	1	
11820	2944	2816	0	
11821	2944	2880	1	
11822	2944	2944	1	
11823	2944	3008	1	
11824	2944	3072	0	check later
11825	2944	3136	1	
11826	2944	3200	1	
11827	2944	3264	1	
11828	2944	3328	1	
11829	2944	3392	1	
11830	2944	3456	1	
11831	2944	3520	1	
11832	2944	3584	1	
11833	2944	3648	1	
11834	2944	3712	1	
11835	2944	3776	1	
11836	2944	3840	1	
11837	2944	3904	1	
11838	2944	3968	0	
11851	2944	4800	0	
11854	2944	4992	1	
11855	2944	5056	1	
11925	2944	9536	1	
11926	2944	9600	0	
11928	2944	9728	1	
11929	2944	9792	1	
11930	2944	9856	0	
11937	2944	10304	1	
12076	3008	2816	0	
12077	3008	2880	0	
12078	3008	2944	0	
12079	3008	3008	1	
12080	3008	3072	1	
12081	3008	3136	1	
12082	3008	3200	1	
12083	3008	3264	1	
12084	3008	3328	1	
12085	3008	3392	1	
12086	3008	3456	1	
12087	3008	3520	1	
12088	3008	3584	1	
12089	3008	3648	1	
12090	3008	3712	1	
12091	3008	3776	1	
12092	3008	3840	1	
12093	3008	3904	1	
12094	3008	3968	0	
12107	3008	4800	1	
12109	3008	4928	1	
12110	3008	4992	1	
12111	3008	5056	1	
12180	3008	9472	0	
12181	3008	9536	1	
12182	3008	9600	0	
12184	3008	9728	1	
12185	3008	9792	1	
12187	3008	9920	0	
12192	3008	10240	1	
12193	3008	10304	1	
12333	3072	2880	0	
12334	3072	2944	0	
12335	3072	3008	1	
12336	3072	3072	1	
12337	3072	3136	1	
12338	3072	3200	1	
12339	3072	3264	1	
12340	3072	3328	1	
12341	3072	3392	1	
12342	3072	3456	1	
12343	3072	3520	1	
12344	3072	3584	1	
12345	3072	3648	1	
12346	3072	3712	1	
12347	3072	3776	1	
12348	3072	3840	1	
12349	3072	3904	1	
12350	3072	3968	0	
12436	3072	9472	1	
12437	3072	9536	1	
12438	3072	9600	1	
12439	3072	9664	1	
12440	3072	9728	1	
12441	3072	9792	1	
12442	3072	9856	1	
12443	3072	9920	1	
12444	3072	9984	0	
12590	3136	2944	1	
12591	3136	3008	1	
12592	3136	3072	1	
12593	3136	3136	1	
12594	3136	3200	1	
12595	3136	3264	1	
12596	3136	3328	1	
12597	3136	3392	1	
12598	3136	3456	1	
12599	3136	3520	1	
12600	3136	3584	1	
12601	3136	3648	1	
12602	3136	3712	1	
12603	3136	3776	1	
12604	3136	3840	1	
12605	3136	3904	1	
12606	3136	3968	0	
12693	3136	9536	1	
12694	3136	9600	1	
12697	3136	9792	1	
12698	3136	9856	1	
12699	3136	9920	0	
12700	3136	9984	0	
12843	3200	2752	1	
12844	3200	2816	1	
12845	3200	2880	1	
12846	3200	2944	1	
12847	3200	3008	1	
12848	3200	3072	1	
12849	3200	3136	1	
12850	3200	3200	1	
12851	3200	3264	1	
12852	3200	3328	1	
12853	3200	3392	1	
12854	3200	3456	1	
12855	3200	3520	1	
12856	3200	3584	1	
12857	3200	3648	1	
12858	3200	3712	1	
12859	3200	3776	1	
12860	3200	3840	1	
12861	3200	3904	1	
12862	3200	3968	0	
12945	3200	9280	1	
12946	3200	9344	1	
12948	3200	9472	1	
12949	3200	9536	1	
12950	3200	9600	1	
12952	3200	9728	1	
12953	3200	9792	0	fix later
12954	3200	9856	1	
13099	3264	2752	1	
13100	3264	2816	1	
13101	3264	2880	1	
13102	3264	2944	1	
13103	3264	3008	1	
13104	3264	3072	1	
13105	3264	3136	1	
13106	3264	3200	1	
13107	3264	3264	1	
13108	3264	3328	1	
13109	3264	3392	1	
13110	3264	3456	1	
13111	3264	3520	1	
13112	3264	3584	1	
13113	3264	3648	1	
13114	3264	3712	1	
13115	3264	3776	1	
13116	3264	3840	1	
13117	3264	3904	1	
13118	3264	3968	0	
13199	3264	9152	1	
13202	3264	9344	1	
13203	3264	9408	1	
13206	3264	9600	1	
13210	3264	9856	1	
13357	3328	2880	1	
13358	3328	2944	1	
13359	3328	3008	1	
13360	3328	3072	1	
13361	3328	3136	1	
13362	3328	3200	1	
13363	3328	3264	1	
13364	3328	3328	1	
13365	3328	3392	1	
13366	3328	3456	1	
13367	3328	3520	1	
13368	3328	3584	1	
13369	3328	3648	1	
13370	3328	3712	1	
13371	3328	3776	1	
13372	3328	3840	1	
13373	3328	3904	0	
13374	3328	3968	0	
13464	3328	9728	1	
13465	3328	9792	1	
13466	3328	9856	0	
13616	3392	3072	1	
13617	3392	3136	1	
13618	3392	3200	1	
13619	3392	3264	1	
13620	3392	3328	1	
13621	3392	3392	1	
13622	3392	3456	1	
13623	3392	3520	1	
13718	3392	9600	1	
13720	3392	9728	1	
13722	3392	9856	1	
13872	3456	3072	1	
13873	3456	3136	1	
13874	3456	3200	0	
13875	3456	3264	1	
13876	3456	3328	1	
13877	3456	3392	1	
13878	3456	3456	1	
13879	3456	3520	1	
13972	3456	9472	1	
13975	3456	9664	1	
13977	3456	9792	1	
13979	3456	9920	1	
14131	3520	3264	1	
14133	3520	3392	1	
14134	3520	3456	1	
14135	3520	3520	1	
14231	3520	9664	1	
14234	3520	9856	1	
14235	3520	9920	1	
14390	3584	3456	1	
14391	3584	3520	1	
14646	3648	3456	1	
14647	3648	3520	1	
14746	3648	9856	1	
14747	3648	9920	1	
15159	3776	3520	1	
